ArchProject/ArchProject.sim/sim_1/behav/xsim/wave.vcd
$date
   Thu Apr 24 14:25:19 2025
$end

$version
  2024.2.0
  $dumpfile ("wave.vcd") 
$end

$timescale
  1ps
$end

$scope module CPU_tb $end
$var reg 1 ! clk $end
$var reg 1 " rst $end
$scope module cpu $end
$var wire 1 # clk $end
$var wire 1 $ rst $end
$var reg 32 % pcIn [31:0] $end
$var wire 32 & pcout [31:0] $end
$var wire 32 ' pcPlus4 [31:0] $end
$var wire 32 ( inst [31:0] $end
$var wire 32 ) readingPortOne [31:0] $end
$var wire 32 * readingPortTwo [31:0] $end
$var wire 1 + RegWrite $end
$var wire 32 , writeToRegisterFile [31:0] $end
$var wire 1 - MemtoReg $end
$var wire 1 . MemWrite $end
$var wire 1 / MemRead $end
$var wire 1 0 Branch $end
$var wire 1 1 ALUsrc $end
$var wire 1 2 jalr $end
$var wire 1 3 auipc $end
$var wire 1 4 jal $end
$var wire 1 5 lui $end
$var wire 2 6 ALUop [1:0] $end
$var reg 32 7 inputA [31:0] $end
$var reg 32 8 inputB [31:0] $end
$var wire 32 9 immOut [31:0] $end
$var wire 32 : immOutShifted12 [31:0] $end
$var wire 32 ; outputFromALU [31:0] $end
$var wire 1 < zeroFlag $end
$var wire 1 = carryFlag $end
$var wire 1 > overflowFlag $end
$var wire 1 ? signFlag $end
$var wire 4 @ ALUsel [3:0] $end
$var wire 1 A branchOrNot $end
$var wire 1 B ANDGate $end
$var wire 32 C pcPlusBranch [31:0] $end
$var wire 32 D outputFromDataMem [31:0] $end
$var wire 32 E output_From_MUX_of_ALU_dataMem [31:0] $end
$var wire 32 F pcPlusJalr [31:0] $end
$scope module PC $end
$var wire 1 # clk $end
$var wire 1 $ rst $end
$var wire 1 G load $end
$var wire 32 H inputData [31:0] $end
$var wire 32 & data [31:0] $end
$var wire 32 I pass [31:0] $end
$scope module genblk1[0].D $end
$var wire 1 # clk $end
$var wire 1 $ rst $end
$var wire 1 J D $end
$var reg 1 K Q $end
$upscope $end
$scope module genblk1[1].D $end
$var wire 1 # clk $end
$var wire 1 $ rst $end
$var wire 1 L D $end
$var reg 1 M Q $end
$upscope $end
$scope module genblk1[2].D $end
$var wire 1 # clk $end
$var wire 1 $ rst $end
$var wire 1 N D $end
$var reg 1 O Q $end
$upscope $end
$scope module genblk1[3].D $end
$var wire 1 # clk $end
$var wire 1 $ rst $end
$var wire 1 P D $end
$var reg 1 Q Q $end
$upscope $end
$scope module genblk1[4].D $end
$var wire 1 # clk $end
$var wire 1 $ rst $end
$var wire 1 R D $end
$var reg 1 S Q $end
$upscope $end
$scope module genblk1[5].D $end
$var wire 1 # clk $end
$var wire 1 $ rst $end
$var wire 1 T D $end
$var reg 1 U Q $end
$upscope $end
$scope module genblk1[6].D $end
$var wire 1 # clk $end
$var wire 1 $ rst $end
$var wire 1 V D $end
$var reg 1 W Q $end
$upscope $end
$scope module genblk1[7].D $end
$var wire 1 # clk $end
$var wire 1 $ rst $end
$var wire 1 X D $end
$var reg 1 Y Q $end
$upscope $end
$scope module genblk1[8].D $end
$var wire 1 # clk $end
$var wire 1 $ rst $end
$var wire 1 Z D $end
$var reg 1 [ Q $end
$upscope $end
$scope module genblk1[9].D $end
$var wire 1 # clk $end
$var wire 1 $ rst $end
$var wire 1 \ D $end
$var reg 1 ] Q $end
$upscope $end
$scope module genblk1[10].D $end
$var wire 1 # clk $end
$var wire 1 $ rst $end
$var wire 1 ^ D $end
$var reg 1 _ Q $end
$upscope $end
$scope module genblk1[11].D $end
$var wire 1 # clk $end
$var wire 1 $ rst $end
$var wire 1 ` D $end
$var reg 1 a Q $end
$upscope $end
$scope module genblk1[12].D $end
$var wire 1 # clk $end
$var wire 1 $ rst $end
$var wire 1 b D $end
$var reg 1 c Q $end
$upscope $end
$scope module genblk1[13].D $end
$var wire 1 # clk $end
$var wire 1 $ rst $end
$var wire 1 d D $end
$var reg 1 e Q $end
$upscope $end
$scope module genblk1[14].D $end
$var wire 1 # clk $end
$var wire 1 $ rst $end
$var wire 1 f D $end
$var reg 1 g Q $end
$upscope $end
$scope module genblk1[15].D $end
$var wire 1 # clk $end
$var wire 1 $ rst $end
$var wire 1 h D $end
$var reg 1 i Q $end
$upscope $end
$scope module genblk1[16].D $end
$var wire 1 # clk $end
$var wire 1 $ rst $end
$var wire 1 j D $end
$var reg 1 k Q $end
$upscope $end
$scope module genblk1[17].D $end
$var wire 1 # clk $end
$var wire 1 $ rst $end
$var wire 1 l D $end
$var reg 1 m Q $end
$upscope $end
$scope module genblk1[18].D $end
$var wire 1 # clk $end
$var wire 1 $ rst $end
$var wire 1 n D $end
$var reg 1 o Q $end
$upscope $end
$scope module genblk1[19].D $end
$var wire 1 # clk $end
$var wire 1 $ rst $end
$var wire 1 p D $end
$var reg 1 q Q $end
$upscope $end
$scope module genblk1[20].D $end
$var wire 1 # clk $end
$var wire 1 $ rst $end
$var wire 1 r D $end
$var reg 1 s Q $end
$upscope $end
$scope module genblk1[21].D $end
$var wire 1 # clk $end
$var wire 1 $ rst $end
$var wire 1 t D $end
$var reg 1 u Q $end
$upscope $end
$scope module genblk1[22].D $end
$var wire 1 # clk $end
$var wire 1 $ rst $end
$var wire 1 v D $end
$var reg 1 w Q $end
$upscope $end
$scope module genblk1[23].D $end
$var wire 1 # clk $end
$var wire 1 $ rst $end
$var wire 1 x D $end
$var reg 1 y Q $end
$upscope $end
$scope module genblk1[24].D $end
$var wire 1 # clk $end
$var wire 1 $ rst $end
$var wire 1 z D $end
$var reg 1 { Q $end
$upscope $end
$scope module genblk1[25].D $end
$var wire 1 # clk $end
$var wire 1 $ rst $end
$var wire 1 | D $end
$var reg 1 } Q $end
$upscope $end
$scope module genblk1[26].D $end
$var wire 1 # clk $end
$var wire 1 $ rst $end
$var wire 1 ~ D $end
$var reg 1 !! Q $end
$upscope $end
$scope module genblk1[27].D $end
$var wire 1 # clk $end
$var wire 1 $ rst $end
$var wire 1 "! D $end
$var reg 1 #! Q $end
$upscope $end
$scope module genblk1[28].D $end
$var wire 1 # clk $end
$var wire 1 $ rst $end
$var wire 1 $! D $end
$var reg 1 %! Q $end
$upscope $end
$scope module genblk1[29].D $end
$var wire 1 # clk $end
$var wire 1 $ rst $end
$var wire 1 &! D $end
$var reg 1 '! Q $end
$upscope $end
$scope module genblk1[30].D $end
$var wire 1 # clk $end
$var wire 1 $ rst $end
$var wire 1 (! D $end
$var reg 1 )! Q $end
$upscope $end
$scope module genblk1[31].D $end
$var wire 1 # clk $end
$var wire 1 $ rst $end
$var wire 1 *! D $end
$var reg 1 +! Q $end
$upscope $end
$upscope $end
$scope module instructionMemory $end
$var wire 6 ,! addr [7:2] $end
$var wire 32 ( data_out [31:0] $end
$upscope $end
$scope module regfile $end
$var wire 1 # clk $end
$var wire 1 $ rst $end
$var wire 32 ) ReadingPortOne [31:0] $end
$var wire 32 * ReadingPortTwo [31:0] $end
$var wire 32 , WritingPort [31:0] $end
$var wire 5 -! SelectReadOne [19:15] $end
$var wire 5 .! SelectReadTwo [24:20] $end
$var wire 5 /! SelectWrite [11:7] $end
$var wire 1 + RegWrite $end
$var integer 32 0! i [31:0] $end
$upscope $end
$scope module unit $end
$var wire 7 1! opcode [6:0] $end
$var reg 1 2! RegWrite $end
$var reg 1 3! MemtoReg $end
$var reg 1 4! MemWrite $end
$var reg 1 5! MemRead $end
$var reg 1 6! Branch $end
$var reg 1 7! ALUSrc $end
$var reg 2 8! ALUop [1:0] $end
$var reg 1 9! jalr $end
$var reg 1 :! auipc $end
$var reg 1 ;! jal $end
$var reg 1 <! lui $end
$upscope $end
$scope module imm $end
$var wire 32 ( IR [31:0] $end
$var wire 3 =! func3 [14:12] $end
$var reg 32 >! Imm [31:0] $end
$upscope $end
$scope module alucu $end
$var wire 2 6 AluOP [1:0] $end
$var wire 3 =! Inst [14:12] $end
$var wire 1 ?! Ins_30 $end
$var reg 4 @! ALU_sel [3:0] $end
$var reg 4 A! ALUCont [3:0] $end
$upscope $end
$scope module ALU $end
$var wire 32 B! a [31:0] $end
$var wire 32 C! b [31:0] $end
$var reg 32 D! r [31:0] $end
$var wire 1 = cf $end
$var wire 1 < zf $end
$var wire 1 > vf $end
$var wire 1 ? sf $end
$var wire 4 @ alufn [3:0] $end
$var wire 32 E! add [31:0] $end
$var wire 32 F! op_b [31:0] $end
$var wire 32 G! sh [31:0] $end
$scope module shifter0 $end
$var wire 32 B! a [31:0] $end
$var wire 5 H! shamt [24:20] $end
$var wire 2 I! type [1:0] $end
$var reg 32 J! r [31:0] $end
$upscope $end
$upscope $end
$scope module decoder $end
$var wire 1 = carryFlag $end
$var wire 1 < zeroFlag $end
$var wire 1 > overflowFlag $end
$var wire 1 ? signFlag $end
$var wire 3 =! func3 [14:12] $end
$var reg 1 K! branchOrNot $end
$upscope $end
$scope module dataMemory $end
$var wire 1 # clk $end
$var wire 1 / MemRead $end
$var wire 1 . MemWrite $end
$var wire 3 =! func3 [14:12] $end
$var wire 12 L! addr [11:0] $end
$var wire 32 * data_in [31:0] $end
$var wire 32 D data_out [31:0] $end
$upscope $end
$upscope $end
$upscope $end
$enddefinitions $end

#0
$dumpvars
0!
0!!
1"
0"!
0#
0#!
1$
0$!
b0 %
0%!
b0 &
0&!
b100 '
0'!
b10000010000011 (
0(!
b0 )
0)!
b0 *
0*!
1+
0+!
b1000000000000000000000001 ,
b0 ,!
0-
b0 -!
0.
b0 .!
1/
b1 /!
00
b100000 0!
11
b11 1!
02
12!
03
03!
04
04!
05
15!
b0 6
06!
b0 7
17!
b0 8
b0 8!
b0 9
09!
b0 :
0:!
b0 ;
0;!
1<
0<!
0=
b10 =!
1>
b0 >!
0?
0?!
b0 @
b0 @!
0A
b10 A!
0B
b0 B!
b0 C
b0 C!
b1000000000000000000000001 D
b0 D!
b1000000000000000000000001 E
b0 E!
b0 F
b11111111111111111111111111111111 F!
1G
b0 G!
b0 H
b0 H!
b0 I
b0 I!
0J
b0 J!
0K
0K!
0L
b0 L!
0M
0N
0O
0P
0Q
0R
0S
0T
0U
0V
0W
0X
0Y
0Z
0[
0\
0]
0^
0_
0`
0a
0b
0c
0d
0e
0f
0g
0h
0i
0j
0k
0l
0m
0n
0o
0p
0q
0r
0s
0t
0u
0v
0w
0x
0y
0z
0{
0|
0}
0~
$end

#1000
0"
0$
b100 %
b100 H
b100 I
1N

#2000
1!
1#
b100 &
b1000 '
b1000100000011 (
b1 ,
b1 ,!
b0 -!
b0 .!
b10 /!
b11 1!
b1 =!
0?!
b1 A!
b100 C
b1 D
b1 E
1O

#4000
0!
0#
b1000 %
b1000 H
b1000 I
0N
1P

#6000
1!
1#
b1000 &
b1100 '
b110000011 (
b10 ,!
b0 -!
b0 .!
b11 /!
b11 1!
b0 =!
0?!
1A
b0 A!
b1000 C
1K!
0O
1Q

#8000
0!
0#
b1100 %
b1100 H
b1100 I
1N

#10000
1!
1#
b1100 &
b10000 '
b100001000000011 (
b11 ,!
b0 -!
b0 .!
b100 /!
b11 1!
b100 =!
0?!
b100 A!
b1100 C
1O

#12000
0!
0#
b10000 %
b10000 H
b10000 I
0N
0P
1R

#14000
1!
1#
b10000 &
b10100 '
b101001010000011 (
b100 ,!
b0 -!
b0 .!
b101 /!
b11 1!
b101 =!
0?!
b101 A!
b10000 C
0O
0Q
1S

#16000
0!
0#
b10100 %
b10100 H
b10100 I
1N

#18000
1!
1#
b10100 &
b11000 '
b100000010001000100011 (
b1000000000000000000000001 *
0+
b0x00 ,
b101 ,!
x-
b0 -!
1.
b1 .!
0/
b100 /!
b100011 1!
02!
x3!
14!
05!
b100 8
b100 9
b100000000000000 :
b100 ;
0<
b10 =!
b100 >!
0?!
0A
b10 A!
b11100 C
b100 C!
b0 D
b100 D!
b0x00 E
b100 E!
b100 F
b11111111111111111111111111111011 F!
b0 H!
0K!
b100 L!
1O

#20000
0!
0#
b11000 %
b11000 H
b11000 I
0N
1P

#22000
1!
1#
b11000 &
b11100 '
b1000000001010000100011 (
b1 *
b0x000 ,
b110 ,!
b0 -!
b10 .!
b1000 /!
b100011 1!
b1000 8
b1000 9
b1000000000000000 :
b1000 ;
b1 =!
b1000 >!
0?!
1A
b1 A!
b101000 C
b1000 C!
b1000 D!
b0x000 E
b1000 E!
b1000 F
b11111111111111111111111111110111 F!
b0 H!
1K!
b1000 L!
0O
1Q

#24000
0!
0#
b11100 %
b11100 H
b11100 I
1N

#26000
1!
1#
b11100 &
b100000 '
b1100000000011000100011 (
b0xx00 ,
b111 ,!
b0 -!
b11 .!
b1100 /!
b100011 1!
b1100 8
b1100 9
b1100000000000000 :
b1100 ;
b0 =!
b1100 >!
0?!
b0 A!
b110100 C
b1100 C!
b1100 D!
b0xx00 E
b1100 E!
b1100 F
b11111111111111111111111111110011 F!
b0 H!
b1100 L!
1O

#28000
0!
0#
b100000 %
b100000 H
b100000 I
0N
0P
0R
1T

#30000
1!
1#
b100000 &
b100100 '
b10100000000001100010011 (
1+
b101 ,
b1000 ,!
1-
b0 -!
x.
b101 .!
x/
b110 /!
b10011 1!
12!
13!
x4!
x5!
b11 6
b101 8
b11 8!
b101 9
b101000000000000 :
b101 ;
b0 =!
b101 >!
0?!
b101010 C
b101 C!
b101 D!
b101 E
b101 E!
b101 F
b11111111111111111111111111111010 F!
b0 H!
b101 L!
0O
0Q
0S
1U

#32000
0!
0#
b100100 %
b100100 H
b100100 I
1N

#34000
1!
1#
b100100 &
b101000 '
b101000110010001110010011 (
b101 )
b0 *
b1 ,
b1001 ,!
b110 -!
b1010 .!
b111 /!
b10011 1!
b101 7
b1010 8
b1010 9
b1010000000000000 :
b1 ;
0<
0=
b10 =!
0>
b1010 >!
1?
0?!
b1101 @
b1101 @!
0A
b10 A!
b101 B!
b111000 C
b1010 C!
b0x0000000x0000000000000000 D
b1 D!
b1 E
b11111111111111111111111111111011 E!
b1111 F
b11111111111111111111111111110101 F!
b101 G!
b0 H!
b1 I!
b101 J!
0K!
b1 L!
1O

#36000
0!
0#
b101000 %
b101000 H
b101000 I
0N
1P

#38000
1!
1#
b101000 &
b101100 '
b101000110011010000010011 (
b1010 ,!
b110 -!
b1010 .!
b1000 /!
b10011 1!
b11 =!
0?!
b1111 @
b1111 @!
b11 A!
b111100 C
b0 D
b0 G!
b11 I!
b0 J!
0O
1Q

#40000
0!
0#
b101100 %
b101100 H
b101100 I
1N

#42000
1!
1#
b101100 &
b110000 '
b1100110100010010010011 (
b1 *
b110 ,
b1011 ,!
b110 -!
b11 .!
b1001 /!
b10011 1!
b11 8
b11 9
b11000000000000 :
b110 ;
1=
b100 =!
b11 >!
0?
0?!
b111 @
b111 @!
1A
b100 A!
b110010 C
b11 C!
b110 D!
b110 E
b10 E!
b1000 F
b11111111111111111111111111111100 F!
b0 H!
b11 I!
1K!
b110 L!
1O

#44000
0!
0#
b110000 %
b110000 H
b110000 I
0N
0P
1R

#46000
1!
1#
b110000 &
b110100 '
b1100110110010100010011 (
b111 ,
b1100 ,!
b110 -!
b11 .!
b1010 /!
b10011 1!
b111 ;
0=
b110 =!
1>
0?!
b100 @
b100 @!
b110 A!
b110110 C
b111 D!
b111 E
b1000 E!
b101 G!
b0 I!
b101 J!
b111 L!
0O
0Q
1S

#48000
0!
0#
b110100 %
b110100 H
b110100 I
1N

#50000
1!
1#
b110100 &
b111000 '
b1100110111000010010011 (
b1 ,
b1101 ,!
b110 -!
b11 .!
b1 /!
b10011 1!
b1 ;
1=
b111 =!
0>
0?!
b101 @
b101 @!
b111 A!
b111010 C
b1 D!
b1 E
b10 E!
b1 I!
b1 L!
1O

#52000
0!
0#
b111000 %
b111000 H
b111000 I
0N
1P

#54000
1!
1#
b111000 &
b111100 '
b1000110001000100010011 (
b101 ,
b1110 ,!
b110 -!
b10 .!
b10 /!
b10011 1!
b10 8
b10 9
b10000000000000 :
b101 ;
0=
b1 =!
1>
b10 >!
0?!
b1000 @
b1000 @!
b1 A!
b111100 C
b10 C!
b101 D!
b101 E
b111 E!
b111 F
b11111111111111111111111111111101 F!
b0 H!
b0 I!
b101 L!
0O
1Q

#56000
0!
0#
b111100 %
b111100 H
b111100 I
1N

#58000
1!
1#
b111100 &
b1000000 '
b1000010101000110010011 (
b101 *
b1111 ,!
b10 -!
b10 .!
b11 /!
b10011 1!
1=
b101 =!
0>
0?!
b1001 @
b1001 @!
b101 A!
b1000000 C
b11 E!
b1 I!
1O

#60000
0!
0#
b1000000 %
b1000000 H
b1000000 I
0N
0P
0R
0T
1V

#62000
1!
1#
b1000000 &
b1000100 '
b11111111111100000000001000010011 (
b0 )
b0 *
b11111111111111111111111111111111 ,
b10000 ,!
b0 -!
b11111 .!
b100 /!
b10011 1!
b0 7
b11111111111111111111111111111111 8
b11111111111111111111111111111111 9
b11111111111111111111000000000000 :
b11111111111111111111111111111111 ;
0=
b0 =!
1>
b11111111111111111111111111111111 >!
1?
1?!
b0 @
b0 @!
b1000 A!
b0 B!
b111110 C
b11111111111111111111111111111111 C!
bx D
b11111111111111111111111111111111 D!
b11111111111111111111111111111111 E
b11111111111111111111111111111111 E!
b11111111111111111111111111111111 F
b0 F!
b0 G!
b11111 H!
b0 I!
b0 J!
b111111111111 L!
0O
0Q
0S
0U
1W

#64000
0!
0#
b1000100 %
b1000100 H
b1000100 I
1N

#66000
1!
1#
b1000100 &
b1001000 '
b1000000001000100101001010010011 (
b11111111111111111111111111111111 )
b101 *
b10001 ,!
b100 -!
b10 .!
b101 /!
b10011 1!
b11111111111111111111111111111111 7
b10 8
b10 9
b10000000000000 :
1=
b101 =!
1>
b10 >!
0?
1?!
b1010 @
b1010 @!
b1101 A!
b11111111111111111111111111111111 B!
b1001000 C
b10 C!
b0xxxxxxxxxxxxxxxx D
b1 E!
b1 F
b11111111111111111111111111111101 F!
b11111111111111111111111111111111 G!
b0 H!
b10 I!
b11111111111111111111111111111111 J!
1O

#68000
0!
0#
b1001000 %
b1001000 H
b1001000 I
0N
1P

#70000
1!
1#
b1001000 &
b1001100 '
b100110000001110110011 (
b101 )
b1 *
b0 ,
b10010 ,!
0-
b110 -!
0.
b1 .!
0/
b111 /!
01
b110011 1!
03!
04!
05!
b10 6
b101 7
07!
b1 8
b10 8!
b1 9
b1000000000000 :
b110 ;
0=
b0 =!
b1 >!
0?!
b0 @
b0 @!
b0 A!
b101 B!
b1001010 C
b1 C!
b0 D
b110 D!
b0 E
b110 E!
b110 F
b11111111111111111111111111111110 F!
b101 G!
b0 H!
b0 I!
b101 J!
b110 L!
0O
1Q

#72000
0!
0#
b1001100 %
b1001100 H
b1001100 I
1N

#74000
1!
1#
b1001100 &
b1010000 '
b1000000000100111000010000110011 (
b0 )
b10011 ,!
b111 -!
b1 .!
b1000 /!
b110011 1!
b0 7
b10000000001 9
b10000000001000000000000 :
b11111111111111111111111111111111 ;
b0 =!
0>
b10000000001 >!
1?
1?!
b1 @
b1 @!
b1000 A!
b0 B!
b100001001110 C
b11111111111111111111111111111111 D!
b11111111111111111111111111111111 E!
b10000000001 F
b0 G!
b1 I!
b0 J!
b111111111111 L!
1O

#76000
0!
0#
b1010000 %
b1010000 H
b1010000 I
0N
0P
1R

#78000
1!
1#
b1010000 &
b1010100 '
b100111001010010110011 (
b10100 ,!
b111 -!
b1 .!
b1001 /!
b110011 1!
b1 9
b1000000000000 :
b0 ;
b1 =!
1>
b1 >!
0?
0?!
b1000 @
b1000 @!
b1 A!
b1010010 C
b0 D!
b1 E!
b1 F
b0 I!
b0 L!
0O
0Q
1S

#80000
0!
0#
b1010100 %
b1010100 H
b1010100 I
1N

#82000
1!
1#
b1010100 &
b1011000 '
b100000111010010100110011 (
b0 *
b10101 ,!
b111 -!
b1000 .!
b1010 /!
b110011 1!
b0 8
b1000 9
b1000000000000000 :
1<
1=
b10 =!
0>
b1000 >!
0?
0?!
b1101 @
b1101 @!
0A
b10 A!
b1100100 C
b0 C!
b0 E!
b1000 F
b11111111111111111111111111111111 F!
b0 H!
b1 I!
0K!
1O

#84000
0!
0#
b1011000 %
b1011000 H
b1011000 I
0N
1P

#86000
1!
1#
b1011000 &
b1011100 '
b100111011000010110011 (
b1 *
b10110 ,!
b111 -!
b1 .!
b1 /!
b110011 1!
b1 8
b1 9
b1000000000000 :
b1 ;
0<
0=
b11 =!
b1 >!
1?
0?!
b1111 @
b1111 @!
b11 A!
b1011010 C
b1 C!
b1 D!
b11111111111111111111111111111111 E!
b1 F
b11111111111111111111111111111110 F!
b0 H!
b11 I!
b1 L!
0O
1Q

#88000
0!
0#
b1011100 %
b1011100 H
b1011100 I
1N

#90000
1!
1#
b1011100 &
b1100000 '
b100000111100000100110011 (
b0 *
b10111 ,!
b111 -!
b1000 .!
b10 /!
b110011 1!
b0 8
b1000 9
b1000000000000000 :
b0 ;
1<
1=
b100 =!
b1000 >!
0?
0?!
b111 @
b111 @!
b100 A!
b1101100 C
b0 C!
b0 D!
b0 E!
b1000 F
b11111111111111111111111111111111 F!
b0 H!
b11 I!
b0 L!
1O

#92000
0!
0#
b1100000 %
b1100000 H
b1100000 I
0N
0P
0R
1T

#94000
1!
1#
b1100000 &
b1100100 '
b101001101000110110011 (
b11000 ,!
b1001 -!
b1 .!
b11 /!
b110011 1!
b1 9
b1000000000000 :
b101 =!
b1 >!
0?!
b1001 @
b1001 @!
1A
b101 A!
b1100010 C
b1 F
b1 I!
1K!
0O
0Q
0S
1U

#96000
0!
0#
b1100100 %
b1100100 H
b1100100 I
1N

#98000
1!
1#
b1100100 &
b1101000 '
b1000000000100100101001000110011 (
b11111111111111111111111111111111 )
b11001 ,!
b100 -!
b1 .!
b100 /!
b110011 1!
b11111111111111111111111111111111 7
b10000000001 9
b10000000001000000000000 :
b11111111111111111111111111111111 ;
0<
0=
b101 =!
1>
b10000000001 >!
1?
1?!
b1010 @
b1010 @!
b1101 A!
b11111111111111111111111111111111 B!
b100001100110 C
b11111111111111111111111111111111 D!
b11111111111111111111111111111111 E!
b10000000000 F
b11111111111111111111111111111111 G!
b10 I!
b11111111111111111111111111111111 J!
b111111111111 L!
1O

#100000
0!
0#
b1101000 %
b1101000 H
b1101000 I
0N
1P

#102000
1!
1#
b1101000 &
b1101100 '
b100000111110001010110011 (
b0 )
b11010 ,!
b111 -!
b1000 .!
b101 /!
b110011 1!
b0 7
b1000 9
b1000000000000000 :
b0 ;
1<
b110 =!
b1000 >!
0?
0?!
b100 @
b100 @!
b110 A!
b0 B!
b1111000 C
b0 D!
b0 E!
b1000 F
b0 G!
b0 I!
b0 J!
b0 L!
0O
1Q

#104000
0!
0#
b1101100 %
b1101100 H
b1101100 I
1N

#106000
1!
1#
b1101100 &
b1110000 '
b100000111111001100110011 (
b11011 ,!
b111 -!
b1000 .!
b110 /!
b110011 1!
1=
b111 =!
0>
0?!
b101 @
b101 @!
b111 A!
b1111100 C
b1 I!
1O

#108000
0!
0#
b1110000 %
b1110000 H
b1110000 I
0N
0P
1R

#110000
1!
1#
b1110000 &
b1110100 '
b1000010110111 (
b1000000000000000000000000 ,
b11100 ,!
x-
b0 -!
x.
b0 .!
x/
b1 /!
x1
b110111 1!
x3!
x4!
15
x5!
bx 6
x7!
bx 8!
b1000000000000 9
b1000000000000000000000000 :
1<!
1=
b1 =!
0>
b1000000000000 >!
0?!
b11 @
b11 @!
b1 A!
b10000001110000 C
b0x D
b0x E
b1000000000000 F
b11 I!
0O
0Q
1S

#112000
0!
0#
b1110100 %
b1110100 H
b1110100 I
1N

#114000
1!
1#
b1110100 &
b1111000 '
b1000100010111 (
b1000000000000000001110100 ,
b11101 ,!
1-
b0 -!
b0 .!
0/
b10 /!
01
b10111 1!
13
13!
05
05!
b0 6
b1110100 7
07!
b1000000000000000000000000 8
b0 8!
1:!
b1000000000000000001110100 ;
0<
0<!
0=
b1 =!
1>
0?!
b0 @
b0 @!
b1110100 B!
b10000001110100 C
b1000000000000000000000000 C!
b0 D
b1000000000000000001110100 D!
b1000000000000000001110100 E
b1000000000000000001110100 E!
b11111110111111111111111111111111 F!
b11101000000000000000000 G!
b10000 H!
b0 I!
b11101000000000000000000 J!
b1110100 L!
1O

#116000
0!
0#
b1111000 %
b1111000 H
b1111000 I
0N
1P

#118000
1!
1#
b1111000 &
b1111100 '
b100000000000000111101111 (
b1111100 ,
b11110 ,!
x-
b0 -!
b1000 .!
b11 /!
11
b1101111 1!
03
x3!
14
b0 7
17!
b100 8
b100 9
b100000000000000 :
0:!
b100 ;
1;!
b0 =!
b100 >!
0?!
b0 A!
b0 B!
b10000000 C
b100 C!
b100 D!
b0x00 E
b100 E!
b100 F
b11111111111111111111111111111011 F!
b0 G!
b0 H!
b0 J!
b100 L!
0O
1Q

#120000
0!
0#
b10000000 %
b10000000 H
b10000000 I
0P
0R
0T
0V
1X

#122000
1!
1#
b10000000 &
b10000100 '
b11000001001100111 (
b1111100 )
b10000100 ,
b100000 ,!
b11 -!
b0 .!
b100 /!
x1
b1100111 1!
12
04
bx 6
b1111100 7
x7!
b0 8
bx 8!
b0 9
19!
b0 :
b0 ;
0;!
1=
b0 =!
0>
b0 >!
0?!
b11 @
b11 @!
b1111100 B!
b10000000 C
b0 C!
b0 D!
b0 E
b1111100 E!
b1111100 F
b11111111111111111111111111111111 F!
b0 G!
b0 H!
b11 I!
b0 J!
b0 L!
0Q
0S
0U
0W
1Y

#124000
0!
0#
b1111100 %
b1111100 H
b1111100 I
1N
1P
1R
1T
1V
0X

#126000
1!
1#
b1111100 &
b10000000 '
b10011 (
b0 )
b0 ,
b11111 ,!
1-
b0 -!
b0 .!
x/
b0 /!
11
b10011 1!
02
13!
x5!
b11 6
b0 7
17!
b11 8!
09!
1<
0=
b0 =!
1>
0?!
b0 @
b0 @!
b0 B!
b1111100 C
b0x D
b0 E!
b0 F
b0 I!
1O
1Q
1S
1U
1W
0Y

#128000
0!
0#
b10000000 %
b10000000 H
b10000000 I
0N
0P
0R
0T
0V
1X

#130000
1!
1#
b10000000 &
b10000100 '
b11000001001100111 (
b1111100 )
b10000100 ,
b100000 ,!
x-
b11 -!
b0 .!
0/
b100 /!
x1
b1100111 1!
12
x3!
05!
bx 6
b1111100 7
x7!
bx 8!
19!
b0 ;
0<
1=
b0 =!
0>
0?!
b11 @
b11 @!
b1111100 B!
b10000000 C
b0 D
b0 D!
b0 E
b1111100 E!
b1111100 F
b0 G!
b11 I!
b0 J!
b0 L!
0O
0Q
0S
0U
0W
1Y

#132000
0!
0#
b1111100 %
b1111100 H
b1111100 I
1N
1P
1R
1T
1V
0X

#134000
1!
1#
b1111100 &
b10000000 '
b10011 (
b0 )
b0 ,
b11111 ,!
1-
b0 -!
b0 .!
x/
b0 /!
11
b10011 1!
02
13!
x5!
b11 6
b0 7
17!
b11 8!
09!
1<
0=
b0 =!
1>
0?!
b0 @
b0 @!
b0 B!
b1111100 C
b0x D
b0 E!
b0 F
b0 I!
1O
1Q
1S
1U
1W
0Y

#136000
0!
0#
b10000000 %
b10000000 H
b10000000 I
0N
0P
0R
0T
0V
1X

#138000
1!
1#
b10000000 &
b10000100 '
b11000001001100111 (
b1111100 )
b10000100 ,
b100000 ,!
x-
b11 -!
b0 .!
0/
b100 /!
x1
b1100111 1!
12
x3!
05!
bx 6
b1111100 7
x7!
bx 8!
19!
b0 ;
0<
1=
b0 =!
0>
0?!
b11 @
b11 @!
b1111100 B!
b10000000 C
b0 D
b0 D!
b0 E
b1111100 E!
b1111100 F
b0 G!
b11 I!
b0 J!
b0 L!
0O
0Q
0S
0U
0W
1Y

#140000
0!
0#
b1111100 %
b1111100 H
b1111100 I
1N
1P
1R
1T
1V
0X

#142000
1!
1#
b1111100 &
b10000000 '
b10011 (
b0 )
b0 ,
b11111 ,!
1-
b0 -!
b0 .!
x/
b0 /!
11
b10011 1!
02
13!
x5!
b11 6
b0 7
17!
b11 8!
09!
1<
0=
b0 =!
1>
0?!
b0 @
b0 @!
b0 B!
b1111100 C
b0x D
b0 E!
b0 F
b0 I!
1O
1Q
1S
1U
1W
0Y

#144000
0!
0#
b10000000 %
b10000000 H
b10000000 I
0N
0P
0R
0T
0V
1X

#146000
1!
1#
b10000000 &
b10000100 '
b11000001001100111 (
b1111100 )
b10000100 ,
b100000 ,!
x-
b11 -!
b0 .!
0/
b100 /!
x1
b1100111 1!
12
x3!
05!
bx 6
b1111100 7
x7!
bx 8!
19!
b0 ;
0<
1=
b0 =!
0>
0?!
b11 @
b11 @!
b1111100 B!
b10000000 C
b0 D
b0 D!
b0 E
b1111100 E!
b1111100 F
b0 G!
b11 I!
b0 J!
b0 L!
0O
0Q
0S
0U
0W
1Y

#148000
0!
0#
b1111100 %
b1111100 H
b1111100 I
1N
1P
1R
1T
1V
0X

#150000
1!
1#
b1111100 &
b10000000 '
b10011 (
b0 )
b0 ,
b11111 ,!
1-
b0 -!
b0 .!
x/
b0 /!
11
b10011 1!
02
13!
x5!
b11 6
b0 7
17!
b11 8!
09!
1<
0=
b0 =!
1>
0?!
b0 @
b0 @!
b0 B!
b1111100 C
b0x D
b0 E!
b0 F
b0 I!
1O
1Q
1S
1U
1W
0Y

#152000
0!
0#
b10000000 %
b10000000 H
b10000000 I
0N
0P
0R
0T
0V
1X

#154000
1!
1#
b10000000 &
b10000100 '
b11000001001100111 (
b1111100 )
b10000100 ,
b100000 ,!
x-
b11 -!
b0 .!
0/
b100 /!
x1
b1100111 1!
12
x3!
05!
bx 6
b1111100 7
x7!
bx 8!
19!
b0 ;
0<
1=
b0 =!
0>
0?!
b11 @
b11 @!
b1111100 B!
b10000000 C
b0 D
b0 D!
b0 E
b1111100 E!
b1111100 F
b0 G!
b11 I!
b0 J!
b0 L!
0O
0Q
0S
0U
0W
1Y

#156000
0!
0#
b1111100 %
b1111100 H
b1111100 I
1N
1P
1R
1T
1V
0X

